module bitbucket.org/itskovich/goava

go 1.19

require (
	github.com/c2h5oh/datasize v0.0.0-20220606134207-859f65c6625b
	github.com/google/uuid v1.3.0
	github.com/kardianos/service v1.2.1
	github.com/labstack/echo/v4 v4.9.0
	github.com/lingdor/stackerror v0.0.0-20191119040541-976d8885ed76
	github.com/spf13/cast v1.5.0
	golang.org/x/text v0.3.7
	gopkg.in/yaml.v2 v2.4.0
)

require (
	github.com/labstack/gommon v0.3.1 // indirect
	github.com/mattn/go-colorable v0.1.11 // indirect
	github.com/mattn/go-isatty v0.0.14 // indirect
	github.com/valyala/bytebufferpool v1.0.0 // indirect
	github.com/valyala/fasttemplate v1.2.1 // indirect
	golang.org/x/crypto v0.0.0-20210817164053-32db794688a5 // indirect
	golang.org/x/net v0.0.0-20211015210444-4f30a5c0130f // indirect
	golang.org/x/sys v0.0.0-20211103235746-7861aae1554b // indirect
)
